<?xml version="1.0" encoding="utf-8"?>
<!-- Generator: Adobe Illustrator 25.4.0, SVG Export Plug-In . SVG Version: 6.00 Build 0)  -->
<svg version="1.1" id="Слой_1" xmlns="http://www.w3.org/2000/svg" xmlns:xlink="http://www.w3.org/1999/xlink" x="0px" y="0px"
	 viewBox="0 0 46 68" style="enable-background:new 0 0 46 68;" xml:space="preserve">
<style type="text/css">
	.st0{fill-rule:evenodd;clip-rule:evenodd;fill:#123265;}
	.st1{fill:#FFFFFF;filter:url(#Adobe_OpacityMaskFilter);}
	.st2{mask:url(#mask0_2656_11004_00000182518612275495755080000000802652626261314989_);}
	.st3{fill:#123265;}
	.st4{fill:#FFFFFF;filter:url(#Adobe_OpacityMaskFilter_00000182493407572374259510000016820888939109618622_);}
	.st5{mask:url(#mask1_2656_11004_00000126323792556730262120000017022907687420311967_);}
</style>
<path class="st0" d="M14.7,65.9h-2.2l-0.6,1.9h-1.5l2.8-8.3H14l2.8,8.3h-1.5L14.7,65.9z M12.8,64.9h1.5l-0.8-2.5L12.8,64.9
	L12.8,64.9z M19.6,65.1l-0.5,0.5v2.3h-1.5V59h1.6v0.1c0,0.1-0.1,0.1-0.1,0.2c0,0.1,0,0.2,0,0.3v4.3l2.4-2.3c0.1,0,0.1,0,0.2,0
	c0.1,0,0.2,0,0.2,0s0.2,0,0.2,0c0.1,0,0.1,0,0.2,0h0.7l-2.5,2.4l2.8,3.7l-1.7,0.1L19.6,65.1L19.6,65.1z M26.2,62.7
	c0,0,0-0.1,0.1-0.1c0.1-0.2,0.3-0.4,0.5-0.6c0.2-0.2,0.4-0.3,0.6-0.4c0.2-0.1,0.4-0.1,0.7-0.1c0.3,0,0.7,0.1,0.9,0.2
	s0.5,0.3,0.8,0.5L29,63.5l0,0.1l-0.1-0.1c0-0.1-0.1-0.1-0.1-0.2c0-0.1-0.1-0.2-0.2-0.3c-0.1-0.1-0.3-0.2-0.4-0.2
	c-0.1-0.1-0.3-0.1-0.4-0.1c-0.2,0-0.4,0-0.6,0.1c-0.2,0.1-0.4,0.2-0.5,0.3c-0.1,0.1-0.3,0.3-0.3,0.6s-0.1,0.5-0.1,0.8v3.2h-1.5v-6.1
	h1.6L26.2,62.7L26.2,62.7z M30.7,67.8v-1.2h1.5v-3.8h-1.4v-1.2h3v5h1.4v1.2H30.7L30.7,67.8z M32.9,60.7c-0.3,0-0.5-0.1-0.7-0.3
	c-0.2-0.2-0.3-0.4-0.3-0.6c0-0.3,0.1-0.5,0.3-0.6c0.2-0.2,0.4-0.3,0.7-0.3c0.2,0,0.5,0.1,0.7,0.3c0.2,0.2,0.3,0.4,0.3,0.6
	c0,0.2-0.1,0.5-0.3,0.6C33.3,60.6,33.1,60.7,32.9,60.7z"/>
<defs>
	<filter id="Adobe_OpacityMaskFilter" filterUnits="userSpaceOnUse" x="0" y="12.7" width="23.2" height="39.1">
		<feColorMatrix  type="matrix" values="1 0 0 0 0  0 1 0 0 0  0 0 1 0 0  0 0 0 1 0"/>
	</filter>
</defs>
<mask maskUnits="userSpaceOnUse" x="0" y="12.7" width="23.2" height="39.1" id="mask0_2656_11004_00000182518612275495755080000000802652626261314989_">
	<path class="st1" d="M0.5,13.5l22.3,12.7v25L0.5,38.3V13.5z"/>
</mask>
<g class="st2">
	<path class="st3" d="M7.6,22v12.4l15.6,9.2V30.1l-0.3-0.1l-3.5-2.1v-4.7l-4.2-1.9v8.9l4.2,2.6v4L11.5,32V19.2L0,12.7v26l23,13v-4.5
		L22.8,47L4.2,36.2V20.1L7.6,22z"/>
</g>
<defs>
	
		<filter id="Adobe_OpacityMaskFilter_00000053540722940125168550000016158941768611598485_" filterUnits="userSpaceOnUse" x="-0.7" y="0.6" width="45.7" height="24.6">
		<feColorMatrix  type="matrix" values="1 0 0 0 0  0 1 0 0 0  0 0 1 0 0  0 0 0 1 0"/>
	</filter>
</defs>
<mask maskUnits="userSpaceOnUse" x="-0.7" y="0.6" width="45.7" height="24.6" id="mask1_2656_11004_00000126323792556730262120000017022907687420311967_">
	<path style="fill:#FFFFFF;filter:url(#Adobe_OpacityMaskFilter_00000053540722940125168550000016158941768611598485_);" d="
		M22.8,26.4L0.5,13.5L22.8,0.6L45,13.5L22.8,26.4z"/>
</mask>
<g class="st5">
	<path class="st3" d="M0.5,13.5L22.8,0.6L45,13.5l-4,2.3L22.8,5.2L4.1,16l10.8,6.1l0.3-0.2l7.6-4.2l4.2,2.5l3.6-2.1l-7.8-4.4
		L15.2,18L11,15.6l11.7-6.5l15.2,8.6l-12,6.9l-3.2-2l-4.9,2.6L-0.7,15L0.5,13.5z"/>
</g>
<path class="st3" d="M41,15.7v13.1l-11.3,6.3v-4.2l8.1-4.5v-8.9l-4,2.3v4.3l-7.6,4.4v12.9L45,30.9l0-17.4L41,15.7z"/>
<path class="st3" d="M22.8,51.2V47L45,34.2l0,4L22.8,51.2z"/>
</svg>
