<?xml version="1.0" encoding="utf-8"?>
<!-- Generator: Adobe Illustrator 25.4.0, SVG Export Plug-In . SVG Version: 6.00 Build 0)  -->
<svg version="1.1" id="Слой_1" xmlns="http://www.w3.org/2000/svg" xmlns:xlink="http://www.w3.org/1999/xlink" x="0px" y="0px"
	 viewBox="0 0 111 39" style="enable-background:new 0 0 111 39;" xml:space="preserve">
<style type="text/css">
	.st0{fill:#123265;}
</style>
<path class="st0" d="M16.1,38.3c-3.2,0-5.9-0.6-8.3-1.7c-2.3-1.2-4.1-2.8-5.4-4.9c-1.2-2.1-1.9-4.6-1.9-7.4c0-3.9,0.7-7.4,2.2-10.4
	s3.5-5.4,6-7c2.5-1.7,5.3-2.5,8.4-2.5c2.9,0,5,0.7,6.5,2.2s2.2,3.4,2.2,5.8c0,1.6-0.3,2.9-0.9,3.9c-0.6,1-1.4,1.5-2.4,1.5
	c-0.7,0-1.3-0.2-1.8-0.5c-0.4-0.3-0.6-0.9-0.6-1.5c0-0.2,0.1-0.7,0.2-1.3c0.2-0.8,0.2-1.4,0.2-1.9c0-2.4-1.3-3.6-3.9-3.6
	c-1.8,0-3.4,0.6-5,1.7c-1.6,1.1-2.9,2.8-3.9,5c-1,2.2-1.5,4.9-1.5,7.9c0,3.2,0.9,5.7,2.7,7.4c1.8,1.7,4.4,2.6,7.9,2.6
	c1.7,0,3.5-0.2,5.2-0.7c1.8-0.4,3.7-1.1,5.9-2c0.4-0.2,0.7-0.2,1-0.2c0.4,0,0.7,0.2,1,0.5c0.2,0.3,0.3,0.7,0.3,1.2
	c0,1.6-0.9,2.8-2.6,3.6c-1.9,0.8-3.8,1.4-5.9,1.8C19.8,38.1,17.9,38.3,16.1,38.3L16.1,38.3z M47.2,25.9c0.3,0,0.6,0.2,0.8,0.5
	c0.2,0.3,0.3,0.8,0.3,1.3c0,1.3-0.4,2-1.2,2.3c-1.6,0.6-3.3,0.9-5.3,1c-0.5,2.2-1.5,4-3,5.4c-1.5,1.3-3.2,2-5.1,2
	c-1.6,0-3-0.4-4.1-1.2c-1.1-0.8-2-1.8-2.6-3.1c-0.6-1.3-0.9-2.7-0.9-4.1c0-2,0.4-3.8,1.2-5.4c0.8-1.6,1.8-2.8,3.2-3.7
	c1.4-0.9,2.9-1.3,4.5-1.3c2,0,3.6,0.7,4.9,2.1c1.2,1.4,2,3.1,2.2,5.2c1.2-0.1,2.7-0.3,4.5-0.8C46.8,25.9,47,25.9,47.2,25.9
	L47.2,25.9z M34.1,34.1c0.8,0,1.6-0.3,2.2-1c0.6-0.7,1-1.7,1.3-3c-0.8-0.6-1.5-1.3-1.9-2.2C35.3,27,35,26,35,25c0-0.4,0-0.9,0.1-1.3
	H35c-1.1,0-1.9,0.5-2.6,1.5c-0.7,1-1.1,2.5-1.1,4.3c0,1.5,0.3,2.6,0.9,3.3C32.7,33.7,33.3,34.1,34.1,34.1z M48.9,38.3
	c-1.2,0-2.2-0.6-2.9-1.7c-0.8-1.1-1.1-2.5-1.1-4.1c0-2,0.1-3.8,0.4-5.5c0.3-1.7,0.7-3.4,1.3-5.3c0.3-0.8,0.6-1.4,1.1-1.7
	c0.5-0.3,1.2-0.5,2.3-0.5c0.6,0,1,0.1,1.2,0.3c0.2,0.2,0.3,0.5,0.3,0.8c0,0.2-0.1,0.9-0.4,2.2c-0.3,1-0.5,1.9-0.6,2.7
	c-0.5,2.8-0.8,4.6-0.8,5.6c0,0.6,0.1,0.9,0.2,1.2c0.1,0.2,0.3,0.3,0.6,0.3c0.4,0,0.9-0.4,1.5-1.2c0.6-0.8,1.2-2,1.9-3.6
	c0.7-1.6,1.3-3.6,2-6c0.2-0.8,0.5-1.4,1-1.7c0.4-0.3,1.1-0.5,2-0.5c0.6,0,1,0.1,1.3,0.2c0.2,0.1,0.4,0.4,0.4,0.8
	c0,0.7-0.3,2.5-1,5.5c-0.7,3.4-1.1,5.5-1.1,6.3c0,0.5,0.1,0.9,0.3,1.2c0.2,0.3,0.5,0.4,0.8,0.4c0.5,0,1.2-0.3,1.9-1
	c0.7-0.7,1.7-1.7,2.9-3.2c0.3-0.4,0.7-0.6,1.1-0.6c0.3,0,0.6,0.2,0.8,0.5c0.2,0.3,0.3,0.8,0.3,1.3c0,1.1-0.3,1.9-0.8,2.5
	C64.6,34.9,63.3,36,62,37c-1.3,0.9-2.8,1.4-4.5,1.4c-1.3,0-2.2-0.5-2.8-1.5c-0.6-1-0.9-2.4-0.9-4.1c-0.5,1.8-1.1,3.2-2,4.2
	C50.9,37.8,49.9,38.3,48.9,38.3L48.9,38.3z M78.4,29.2c0.3,0,0.6,0.2,0.8,0.5c0.2,0.3,0.3,0.8,0.3,1.3c0,1.1-0.3,1.9-0.8,2.5
	C77.6,34.9,76.3,36,75,37c-1.3,0.9-2.9,1.4-4.6,1.4c-2.3,0-4.1-1.1-5.2-3.2c-1.1-2.1-1.7-4.9-1.7-8.2c0-3.2,0.4-6.9,1.3-11.1
	c0.8-4.1,2.1-7.7,3.7-10.7c1.6-3,3.6-4.5,5.8-4.5c1.3,0,2.3,0.6,3,1.8c0.7,1.2,1.1,2.9,1.1,5.1c0,3.2-0.9,6.8-2.6,11
	c-1.8,4.2-4.1,8.3-7.1,12.4c0.2,1.1,0.5,1.9,0.9,2.3c0.4,0.5,1,0.7,1.7,0.7c1.1,0,2-0.3,2.9-0.9c0.8-0.6,1.9-1.7,3.1-3.2
	C77.6,29.4,78,29.2,78.4,29.2z M73.5,4.6c-0.6,0-1.3,1.1-2.1,3.3c-0.8,2.2-1.4,4.9-2,8.2c-0.6,3.3-0.9,6.4-1,9.4
	c1.9-3.1,3.4-6.2,4.5-9.3c1.1-3.1,1.7-6,1.7-8.5C74.6,5.6,74.2,4.6,73.5,4.6z M94,29.2c0.3,0,0.6,0.2,0.8,0.5
	c0.2,0.3,0.3,0.8,0.3,1.3c0,1.1-0.3,1.9-0.8,2.5c-1,1.2-2.4,2.3-4.2,3.3c-1.8,1-3.7,1.5-5.8,1.5c-2.8,0-5-0.8-6.5-2.3
	c-1.5-1.5-2.3-3.6-2.3-6.2c0-1.8,0.4-3.5,1.2-5.1c0.8-1.6,1.8-2.8,3.2-3.8c1.4-0.9,2.9-1.4,4.6-1.4c1.5,0,2.8,0.5,3.7,1.4
	c0.9,0.9,1.4,2.2,1.4,3.7c0,1.8-0.7,3.4-2,4.7c-1.3,1.3-3.5,2.4-6.7,3.1c0.7,1.2,1.9,1.8,3.8,1.8c1.2,0,2.6-0.4,4.1-1.3
	c1.5-0.8,2.8-1.9,4-3.3C93.3,29.4,93.6,29.2,94,29.2z M84,23.4c-1,0-1.8,0.6-2.5,1.7c-0.7,1.1-1,2.5-1,4.1v0.1
	c1.6-0.4,2.8-0.9,3.7-1.7c0.9-0.7,1.4-1.6,1.4-2.6c0-0.5-0.1-0.9-0.4-1.2C84.8,23.6,84.4,23.4,84,23.4z M108,25
	c0.6,0,1.1,0.2,1.5,0.6c0.4,0.4,0.6,0.9,0.6,1.5c0,0.3-0.1,0.7-0.2,1.1c-0.4,1-1,1.8-1.8,2.5c-0.8,0.7-1.6,1-2.5,1
	c-0.7,0-1.4-0.3-1.9-0.8c-0.5-0.5-0.8-1.2-0.8-2.2c0-0.5,0-1,0.1-1.6c0.1-0.4,0.1-0.7,0.1-0.9c0-0.2,0-0.4-0.1-0.5
	c-0.1-0.1-0.2-0.2-0.3-0.2c-0.4,0-0.9,0.4-1.5,1.3c-0.6,0.9-1.3,2.1-1.9,3.5c-0.6,1.5-1.2,3-1.6,4.6c-0.3,1.3-0.6,2.1-1,2.6
	c-0.4,0.4-1,0.6-1.8,0.6c-1,0-1.7-0.5-2.1-1.6C92.2,35.7,92,34,92,31.6c0-3.5,0.5-6.7,1.5-9.8c0.2-0.8,0.6-1.3,1.2-1.7
	c0.5-0.4,1.3-0.5,2.3-0.5c0.5,0,0.9,0.1,1.1,0.2c0.2,0.1,0.3,0.4,0.3,0.8c0,0.4-0.2,1.4-0.6,2.9c-0.3,1.1-0.5,2-0.6,2.8
	c-0.2,0.8-0.3,1.8-0.4,2.9c0.9-2.3,1.9-4.1,2.9-5.6c1.1-1.4,2.2-2.5,3.2-3.1c1-0.6,2-0.9,2.8-0.9c0.8,0,1.4,0.2,1.8,0.7
	c0.4,0.4,0.6,1.1,0.6,1.9c0,0.5-0.1,1.5-0.4,2.9H108z"/>
</svg>
