<?xml version="1.0" encoding="utf-8"?>
<!-- Generator: Adobe Illustrator 25.4.0, SVG Export Plug-In . SVG Version: 6.00 Build 0)  -->
<svg version="1.1" id="Слой_1" xmlns="http://www.w3.org/2000/svg" xmlns:xlink="http://www.w3.org/1999/xlink" x="0px" y="0px"
	 viewBox="0 0 59 59" style="enable-background:new 0 0 59 59;" xml:space="preserve">
<style type="text/css">
	.st0{fill-rule:evenodd;clip-rule:evenodd;fill:#123265;}
</style>
<path class="st0" d="M51.6,15c0,8.2-6.6,14.8-14.8,14.8S21.9,23.2,21.9,15c0-8.2,6.6-14.8,14.8-14.8S51.6,6.8,51.6,15z M38.5,14.1
	c0,0.5-0.4,0.9-0.9,0.9c-0.5,0-0.9-0.4-0.9-0.9c0-0.5,0.4-0.9,0.9-0.9C38.1,13.2,38.5,13.6,38.5,14.1z M38.4,12.4h-1.7V5.6
	c0-1.6,1.3-3,3-3c1.6,0,3,1.3,3,3v1.7H41V5.6c0-0.3-0.1-0.7-0.4-0.9c-0.2-0.2-0.6-0.4-0.9-0.4c-0.7,0-1.3,0.6-1.3,1.3V12.4
	L38.4,12.4z M41,12.4c0,1.6,1.3,3,3,3l0,0c0.8,0,1.5-0.3,2.1-0.9c0.6-0.6,0.9-1.3,0.9-2.1V8.2h-1.7v4.2c0,0.7-0.6,1.3-1.3,1.3
	c-0.7,0-1.3-0.6-1.3-1.3V8.2H41V12.4z M29.1,25.2c0.5,0,0.9-0.4,0.9-0.9s-0.4-0.9-0.9-0.9c-0.5,0-0.9,0.4-0.9,0.9
	S28.6,25.2,29.1,25.2z M28.2,22.6h1.7v0v-9.3c0-0.7,0.6-1.3,1.3-1.3c0.3,0,0.7,0.1,0.9,0.4c0.2,0.2,0.4,0.6,0.4,0.9V15h1.7v-1.7
	c0-1.6-1.3-3-3-3c-1.6,0-3,1.3-3,3V22.6z M35.4,23c-1.6,0-3-1.3-3-3v-4.2h1.7v4.2c0,0.7,0.6,1.3,1.3,1.3c0.7,0,1.3-0.6,1.3-1.3v-4.2
	h1.7v4.2c0,0.8-0.3,1.5-0.9,2.1C37,22.7,36.2,23,35.4,23z M35.4,23C35.4,23,35.4,23,35.4,23L35.4,23C35.4,23,35.4,23,35.4,23z
	 M1.8,58.9C2.3,59,2.7,59,3,59v0c2.1,0,3.7-0.6,4.8-1.8c1.1-1.2,1.7-3,1.7-5.4V33.2H6.1v18.6c0,1.4-0.2,2.4-0.7,3.2
	c-0.5,0.7-1.3,1.1-2.5,1.1c-0.3,0-0.6,0-0.9-0.1c-0.3,0-0.6-0.1-0.8-0.2l-0.4,2.8C1,58.7,1.4,58.8,1.8,58.9z M29.7,51.6
	C29.7,51.6,29.7,51.6,29.7,51.6L29.7,51.6L29.7,51.6z M29.7,51.6V33.2h-3.4v16c-0.1,0-0.3,0.1-0.6,0.1c-0.3,0-0.6,0.1-0.9,0.1
	c-0.4,0-0.7,0.1-1.1,0.1c-0.4,0-0.8,0-1.1,0c-1.7,0-3-0.5-3.7-1.5c-0.7-1-1.1-2.7-1.1-5v-9.9h-3.4v10.7c0,1.3,0.1,2.5,0.4,3.5
	c0.3,1.1,0.7,2,1.3,2.8c0.6,0.8,1.4,1.4,2.4,1.8c1,0.4,2.2,0.6,3.7,0.6c1.7,0,3.2-0.1,4.4-0.3C27.9,52,28.9,51.8,29.7,51.6z
	 M30.8,58.9c0.5,0.1,0.8,0.1,1.1,0.1l0,0c2.1,0,3.7-0.6,4.8-1.8c1.1-1.2,1.7-3,1.7-5.4V33.2H35v18.6c0,1.4-0.2,2.4-0.7,3.2
	c-0.5,0.7-1.3,1.1-2.5,1.1c-0.3,0-0.6,0-0.9-0.1c-0.3,0-0.6-0.1-0.8-0.2l-0.4,2.8C29.9,58.7,30.3,58.8,30.8,58.9z M55.6,52.2
	c1.3-0.2,2.3-0.4,3.1-0.6l0,0V33.2h-3.4v16c-0.1,0-0.3,0.1-0.6,0.1c-0.3,0-0.6,0.1-0.9,0.1c-0.3,0-0.7,0.1-1.1,0.1
	c-0.4,0-0.8,0-1.1,0c-1.7,0-3-0.5-3.7-1.5c-0.7-1-1.1-2.7-1.1-5v-9.9h-3.4v10.7c0,1.3,0.1,2.5,0.4,3.5c0.3,1.1,0.7,2,1.3,2.8
	c0.6,0.8,1.4,1.4,2.4,1.8c1,0.4,2.2,0.6,3.7,0.6C52.8,52.6,54.3,52.5,55.6,52.2z"/>
</svg>
