<?xml version="1.0" encoding="utf-8"?>
<!-- Generator: Adobe Illustrator 25.4.0, SVG Export Plug-In . SVG Version: 6.00 Build 0)  -->
<svg version="1.1" id="Слой_1" xmlns="http://www.w3.org/2000/svg" xmlns:xlink="http://www.w3.org/1999/xlink" x="0px" y="0px"
	 viewBox="0 0 64 49" style="enable-background:new 0 0 64 49;" xml:space="preserve">
<style type="text/css">
	.st0{fill:#123265;}
</style>
<path class="st0" d="M0,48.1v-8.3c0-0.4,0.3-0.7,0.8-0.7c0.4,0,0.7,0.3,0.7,0.7v7.8h4c0.4,0,0.7,0.3,0.7,0.6c0,0.4-0.3,0.7-0.7,0.7
	H0.8C0.3,48.9,0,48.6,0,48.1z M8.5,48.3v-8.4c0-0.4,0.3-0.7,0.8-0.7c0.4,0,0.7,0.3,0.7,0.7v8.4c0,0.4-0.3,0.7-0.7,0.7
	C8.9,49,8.5,48.7,8.5,48.3z M20,48.6l-5.4-7.2v6.8c0,0.4-0.3,0.7-0.7,0.7c-0.4,0-0.8-0.3-0.8-0.7V40c0-0.5,0.4-1,1-1
	c0.3,0,0.6,0.1,0.8,0.4l5.3,7v-6.7c0-0.4,0.3-0.7,0.7-0.7c0.4,0,0.8,0.3,0.8,0.7v8.3c0,0.5-0.4,0.9-0.9,0.9
	C20.4,49,20.2,48.9,20,48.6L20,48.6z M32.3,48.3c0,0.4-0.3,0.7-0.7,0.7c-0.2,0-0.4,0-0.5-0.2l-3.9-4.1l-1,1v2.6
	c0,0.4-0.3,0.7-0.8,0.7c-0.4,0-0.8-0.3-0.8-0.7v-8.4c0-0.4,0.3-0.7,0.8-0.7c0.4,0,0.8,0.3,0.8,0.7V44l4.5-4.7
	c0.2-0.2,0.3-0.2,0.5-0.2c0.4,0,0.7,0.3,0.7,0.7c0,0.2-0.1,0.3-0.2,0.5l-3.5,3.6l3.9,4C32.2,48,32.3,48.1,32.3,48.3L32.3,48.3z
	 M34.7,48.1v-8.2c0-0.5,0.3-0.8,0.8-0.8H41c0.4,0,0.7,0.3,0.7,0.7c0,0.3-0.3,0.6-0.7,0.6h-4.7v2.9h4.6c0.4,0,0.7,0.3,0.7,0.6
	c0,0.4-0.3,0.7-0.7,0.7h-4.6v3.1H41c0.4,0,0.7,0.3,0.7,0.6c0,0.4-0.3,0.7-0.7,0.7h-5.4C35,48.9,34.7,48.6,34.7,48.1L34.7,48.1z
	 M51.8,48.3c0,0.3-0.3,0.7-0.7,0.7c-0.3,0-0.5-0.1-0.6-0.3l-2.5-3.5h-2.1v3.1c0,0.4-0.3,0.7-0.7,0.7c-0.4,0-0.8-0.3-0.8-0.7v-8.3
	c0-0.5,0.3-0.8,0.8-0.8h3.5c1.9,0,3.3,1.2,3.3,3c0,1.6-1.1,2.6-2.3,2.8l2.1,2.9C51.7,48,51.8,48.1,51.8,48.3z M45.7,43.9h2.5
	c1.1,0,1.9-0.7,1.9-1.7c0-1-0.8-1.7-1.9-1.7h-2.5V43.9z M54.4,48.1v-8.2c0-0.5,0.3-0.8,0.8-0.8H58c3.2,0,5.3,2.1,5.3,4.9
	c0,2.8-2.1,4.9-5.3,4.9h-2.8C54.7,48.9,54.4,48.6,54.4,48.1z M58,47.6c2.3,0,3.7-1.6,3.7-3.6c0-2-1.3-3.6-3.7-3.6h-2.1v7.2H58
	L58,47.6z"/>
<path class="st0" d="M46,5.3v12l2.1,1.3v-12L46,5.3z"/>
<path class="st0" d="M15.1,18.5l2.1-1.3v-12l-2.1,1.3V18.5z"/>
<path class="st0" d="M26.2,18.7L37,24.3v-2.5l-10.1-5.3l-0.7,0.4V18.7z M37.6,27.6l-11.4-6v2.5l3,1.6l-3.7,1.9
	c-0.2,0.1-0.2,0.5,0,0.6l1.8,0.9l4.2-2.2l4.2,2.2l1.8-0.9C37.9,28.1,37.9,27.7,37.6,27.6z"/>
<path class="st0" d="M46,12.5v10.3c0,0.3,0.3,0.4,0.5,0.3l1.4-0.9c0.1-0.1,0.2-0.2,0.2-0.3V11.3L46,12.5z"/>
<path class="st0" d="M41.7,26.4l1.3-0.8c0.2-0.1,0.2-0.3,0.2-0.5V13.9l-2.1,1.3v10.9C41.2,26.4,41.5,26.6,41.7,26.4z"/>
<path class="st0" d="M35.7,29.1l2.5-1.2c0.1-0.1,0.2-0.2,0.2-0.3V16.6l-2.7,1.3L35.7,29.1L35.7,29.1z"/>
<path class="st0" d="M25.6,28l1.9,1.2V17.8l-2.1-1.3v11.1C25.4,27.8,25.5,27.9,25.6,28L25.6,28z"/>
<path class="st0" d="M20.9,25.6l1.3,0.8c0.2,0.1,0.5,0,0.5-0.3V15.2l-2.1-1.3v11.2C20.6,25.3,20.7,25.5,20.9,25.6L20.9,25.6z"/>
<path class="st0" d="M15.4,22.3l1.3,0.8c0.2,0.1,0.5,0,0.5-0.3V12.5l-2.1-1.2v10.6C15.1,22.1,15.2,22.2,15.4,22.3z"/>
<path class="st0" d="M48.1,6.7l-2.3-1.2l-4.1,2.2l-2.7-1.5l3.6-1.9c0.2-0.1,0.2-0.5,0-0.6L41,2.8c-0.2-0.1-0.4-0.1-0.5,0l-3.9,2.1
	l-2.7-1.5l3.6-1.9c0.2-0.1,0.2-0.5,0-0.6L36,0.1c-0.2-0.1-0.4-0.1-0.5,0l-3.9,2.1l-3.9-2.1c-0.2-0.1-0.4-0.1-0.5,0l-1.5,0.8
	c-0.2,0.1-0.2,0.5,0,0.6l20.1,10.9l2.3-1.2L44,8.9L48.1,6.7L48.1,6.7z M22.2,2.8l-1.5,0.8c-0.2,0.1-0.2,0.5,0,0.6l20.1,10.9l2.3-1.2
	L22.7,2.8C22.6,2.7,22.3,2.7,22.2,2.8L22.2,2.8z M15.1,6.7l4.1,2.2l-4.1,2.2l2.3,1.2l4.1-2.2l2.7,1.5l-4.1,2.2l2.3,1.2l4.1-2.2
	l2.7,1.5l-4.1,2.2l2.3,1.2l4.1-2.2l4.1,2.2l2.3-1.2L17.4,5.4L15.1,6.7z"/>
</svg>
