<?xml version="1.0" encoding="UTF-8" standalone="no"?>
<svg
   xmlns:dc="http://purl.org/dc/elements/1.1/"
   xmlns:cc="http://creativecommons.org/ns#"
   xmlns:rdf="http://www.w3.org/1999/02/22-rdf-syntax-ns#"
   xmlns:svg="http://www.w3.org/2000/svg"
   xmlns="http://www.w3.org/2000/svg"
   width="536"
   height="80"
   viewBox="0 0 536 80"
   fill="none"
   version="1.1"
   id="svg34">
  <metadata
     id="metadata40">
    <rdf:RDF>
      <cc:Work
         rdf:about="">
        <dc:format>image/svg+xml</dc:format>
        <dc:type
           rdf:resource="http://purl.org/dc/dcmitype/StillImage" />
        <dc:title></dc:title>
      </cc:Work>
    </rdf:RDF>
  </metadata>
  <defs
     id="defs38" />
  <path
     d="M115.537 60.3274C115.537 40.7555 85.1427 44.6699 85.1427 37.7622C85.1427 34.1932 89.6328 32.3512 95.0438 32.3512C101.952 32.3512 108.168 34.6537 111.737 36.3807V23.256C108.399 21.7593 102.757 19.8021 92.7412 19.8021C80.5376 19.8021 69.3701 26.3645 69.3701 37.4168C69.3701 58.14 99.9943 54.2256 99.9943 61.4787C99.9943 64.1266 96.7707 66.199 89.863 66.199C82.9553 66.199 75.3568 64.0115 70.6365 62.2846V75.9849C76.5081 77.827 83.1856 79.3236 89.6328 79.3236C105.29 79.3236 115.537 73.2218 115.537 60.3274Z"
     fill="white"
     id="path10" />
  <path
     d="M125.096 0V53.4197C125.096 69.9982 131.428 79.2085 146.28 79.3236C148.352 79.3236 155.145 78.8631 157.908 78.2875V64.472C156.641 64.8174 150.079 65.1628 148.237 65.1628C141.905 65.1628 140.408 60.7879 140.408 53.5348V34.0781H157.908V20.9534H140.408V0H125.096Z"
     fill="white"
     id="path12" />
  <path
     d="M168.382 78.2875H183.694V46.771C186.185 35.2294 193.365 35.2294 200.387 35.2294C202.345 35.2294 204.187 35.4596 206.029 35.9201V21.0685C204.072 20.4929 202.114 20.2626 199.927 20.2626C193.134 20.2626 171.794 17.9889 168.382 42.4825L168.382 78.2875Z"
     fill="white"
     id="path14" />
  <path
     d="M214.366 78.2875H229.678V20.9534H214.366V78.2875ZM229.793 14.9667V0H214.366V14.9667H229.793Z"
     fill="white"
     id="path16" />
  <path
     d="M265.844 79.3236C273.213 79.3236 278.393 76.4454 281.962 72.4159V78.2875H297.274V0H281.962V26.9401C278.393 22.9106 273.213 19.9173 265.844 19.9173C249.841 19.9173 239.365 33.3873 239.365 49.5053C239.365 65.9687 249.841 79.3236 265.844 79.3236ZM255.137 49.5053C255.137 41.7917 259.052 34.1932 268.032 34.1932C273.673 34.1932 279.545 38.2227 281.962 42.4825V56.6433C279.43 60.7879 273.673 65.0477 268.032 65.0477C259.052 65.0477 255.137 57.1038 255.137 49.5053Z"
     fill="white"
     id="path18" />
  <path
     d="M306.823 49.5053C306.823 65.9687 317.76 79.3236 337.217 79.3236C349.305 79.3236 357.825 73.4521 363.006 64.7023L350.917 58.7156C348.499 62.7451 343.319 66.199 337.332 66.199C330.539 66.199 325.128 61.4787 323.632 56.0676H365.539C365.539 54.3407 365.539 51.4625 365.423 49.7356C364.157 30.9696 352.874 19.9173 335.95 19.9173C320.293 19.9173 306.823 33.3873 306.823 49.5053ZM323.401 44.785C324.668 38.453 329.158 33.157 336.641 33.157C343.894 33.157 348.499 38.7983 349.075 44.785H323.401Z"
     fill="white"
     id="path20" />
  <path
     d="M406 19H410.696V78.0625H406V19Z"
     fill="white"
     id="path22" />
  <path
     d="M452.114 62.9063C452.114 64.6771 452.114 66.2656 452.114 67.6719C452.062 66.474 452.166 69.0781 452.114 67.6719C452.166 68.8698 452.218 77.0208 452.27 78.0625H448.044C448.044 78.0625 447.966 74.3385 447.966 72.2031H447.809C446.453 74.5469 444.757 76.2656 442.723 77.3594C440.74 78.4531 438.21 79 435.131 79C433.566 79 432.027 78.7917 430.514 78.375C429.001 78.0104 427.644 77.4115 426.444 76.5781C425.244 75.6927 424.253 74.5729 423.47 73.2188C422.74 71.8646 422.375 70.224 422.375 68.2969C422.375 65.5365 423.079 63.349 424.488 61.7344C425.897 60.1198 427.618 58.9219 429.653 58.1406C431.74 57.3073 433.931 56.7865 436.227 56.5781C438.575 56.3177 440.636 56.1875 442.41 56.1875H447.888V54C447.888 50.875 446.923 48.6354 444.992 47.2812C443.062 45.9271 440.636 45.25 437.714 45.25C433.54 45.25 429.862 46.6042 426.679 49.3125L423.94 46.1094C425.662 44.4427 427.801 43.1927 430.357 42.3594C432.914 41.474 435.366 41.0312 437.714 41.0312C442.096 41.0312 445.592 42.0729 448.201 44.1563C450.809 46.1875 452.114 49.4948 452.114 54.0781V62.9063ZM442.723 59.9375C440.74 59.9375 438.81 60.0677 436.931 60.3281C435.105 60.5885 433.436 61.0313 431.923 61.6563C430.462 62.2813 429.288 63.1146 428.401 64.1562C427.514 65.1979 427.07 66.5 427.07 68.0625C427.07 69.1563 427.305 70.1458 427.775 71.0313C428.297 71.8646 428.949 72.5677 429.731 73.1406C430.514 73.6615 431.375 74.0781 432.314 74.3906C433.305 74.651 434.297 74.7812 435.288 74.7812C437.792 74.7812 439.853 74.4167 441.47 73.6875C443.088 72.9583 444.366 72.0208 445.305 70.875C446.296 69.6771 446.975 68.349 447.34 66.8906C447.705 65.3802 447.888 63.8698 447.888 62.3594V59.9375H442.723Z"
     fill="white"
     id="path24" />
  <path
     d="M463.583 19H468.279V48.2969H468.435C469.166 47.0469 470.079 45.9792 471.175 45.0938C472.27 44.1563 473.444 43.401 474.696 42.8281C476.001 42.2031 477.357 41.7604 478.766 41.5C480.175 41.1875 481.557 41.0312 482.914 41.0312C485.679 41.0312 488.209 41.5 490.505 42.4375C492.853 43.375 494.861 44.7031 496.531 46.4219C498.253 48.0885 499.583 50.0937 500.522 52.4375C501.461 54.7292 501.931 57.2552 501.931 60.0156C501.931 62.776 501.461 65.3281 500.522 67.6719C499.583 69.9635 498.253 71.9688 496.531 73.6875C494.861 75.3542 492.853 76.6563 490.505 77.5938C488.209 78.5313 485.679 79 482.914 79C481.557 79 480.175 78.8438 478.766 78.5312C477.357 78.2708 476.001 77.8542 474.696 77.2812C473.444 76.6562 472.27 75.901 471.175 75.0156C470.079 74.0781 469.166 72.9844 468.435 71.7344H468.279V78.0625H463.583V19ZM467.809 60.0156C467.809 62.0469 468.201 63.974 468.983 65.7969C469.766 67.5677 470.835 69.1302 472.192 70.4844C473.548 71.7865 475.14 72.8281 476.966 73.6094C478.792 74.3906 480.775 74.7812 482.914 74.7812C485.105 74.7812 487.088 74.3906 488.861 73.6094C490.635 72.8281 492.148 71.7865 493.401 70.4844C494.653 69.1302 495.592 67.5677 496.218 65.7969C496.896 63.974 497.235 62.0469 497.235 60.0156C497.235 57.9844 496.896 56.0833 496.218 54.3125C495.592 52.4896 494.653 50.9271 493.401 49.625C492.148 48.2708 490.635 47.2031 488.861 46.4219C487.088 45.6406 485.105 45.25 482.914 45.25C480.775 45.25 478.792 45.6406 476.966 46.4219C475.14 47.2031 473.548 48.2708 472.192 49.625C470.835 50.9271 469.766 52.4896 468.983 54.3125C468.201 56.0833 467.809 57.9844 467.809 60.0156Z"
     fill="white"
     id="path26" />
  <path
     d="M512.522 68.8438C513.513 70.7708 514.974 72.2552 516.904 73.2969C518.835 74.2865 520.87 74.7812 523.009 74.7812C524 74.7812 524.991 74.625 525.983 74.3125C526.974 74 527.861 73.5573 528.644 72.9844C529.426 72.4115 530.052 71.7344 530.522 70.9531C531.044 70.1198 531.304 69.1823 531.304 68.1406C531.304 66.474 530.757 65.224 529.661 64.3906C528.617 63.5573 527.313 62.9062 525.748 62.4375C524.183 61.9687 522.461 61.5781 520.583 61.2656C518.704 60.901 516.983 60.3802 515.417 59.7031C513.852 58.974 512.522 57.9844 511.426 56.7344C510.383 55.4844 509.861 53.7135 509.861 51.4219C509.861 49.651 510.226 48.1146 510.957 46.8125C511.687 45.5104 512.626 44.4427 513.774 43.6094C514.974 42.724 516.304 42.0729 517.765 41.6562C519.226 41.2396 520.713 41.0312 522.226 41.0312C525.2 41.0312 527.757 41.5781 529.896 42.6719C532.087 43.7656 533.783 45.4844 534.983 47.8281L530.757 50.3281C529.87 48.6615 528.748 47.4115 527.391 46.5781C526.087 45.6927 524.365 45.25 522.226 45.25C521.391 45.25 520.504 45.3802 519.565 45.6406C518.678 45.901 517.87 46.2656 517.139 46.7344C516.409 47.2031 515.783 47.8021 515.261 48.5312C514.791 49.2604 514.557 50.0937 514.557 51.0312C514.557 52.6458 515.078 53.8437 516.122 54.625C517.217 55.4062 518.548 56.0312 520.113 56.5C521.678 56.9167 523.4 57.2813 525.278 57.5938C527.157 57.9063 528.878 58.4271 530.443 59.1563C532.009 59.8333 533.313 60.849 534.357 62.2031C535.452 63.5052 536 65.3802 536 67.8281C536 69.7031 535.635 71.3438 534.904 72.75C534.226 74.1042 533.261 75.25 532.009 76.1875C530.809 77.125 529.426 77.8281 527.861 78.2969C526.296 78.7656 524.652 79 522.93 79C519.8 79 516.931 78.401 514.322 77.2031C511.765 76.0052 509.783 74.1563 508.374 71.6563L512.522 68.8438Z"
     fill="white"
     id="path28" />
  <path
     d="M58.6238 23.5935V47.5881H43.9974L43.9974 35.2125C43.9974 35.2125 30.2174 35.2125 31.0358 35.2125V20H55.0344C57.0214 20 58.6238 21.6065 58.6238 23.5935Z"
     fill="white"
     id="path30" />
  <path
     fill-rule="evenodd"
     clip-rule="evenodd"
     d="M24 20.4292C10.3665 22.7985 0 34.6885 0 48.9998V49.9998C0 66.016 12.9837 78.9998 29 78.9998H30C44.3112 78.9998 56.2012 68.6333 58.5706 54.9998H44.1465C42.0873 60.8257 36.5311 64.9998 30 64.9998C21.7157 64.9998 15 58.284 15 49.9998C15 43.8488 18.7023 38.5626 24 36.2479V20.4292Z"
     fill="#1D9CE5"
     id="path32" />
</svg>
